#
# A fatal error has been detected by the Java Runtime Environment:
#
#  EXCEPTION_ACCESS_VIOLATION (0xc0000005) at pc=0x0000000002be709a, pid=9080, tid=0x0000000000002a08
#
# JRE version: OpenJDK Runtime Environment (8.0_202-b03) (build 1.8.0_202-release-1483-b03)
# Java VM: OpenJDK 64-Bit Server VM (25.202-b03 mixed mode windows-amd64 compressed oops)
# Problematic frame:
# J 447 C2 java.lang.AbstractStringBuilder.append(Ljava/lang/String;)Ljava/lang/AbstractStringBuilder; (50 bytes) @ 0x0000000002be709a [0x0000000002be7060+0x3a]
#
# Failed to write core dump. Minidumps are not enabled by default on client versions of Windows
#
# If you would like to submit a bug report, please visit:
#   http://bugreport.java.com/bugreport/crash.jsp
#

---------------  T H R E A D  ---------------

Current thread (0x000000000098e000):  JavaThread "main" [_thread_in_Java, id=10760, stack(0x00000000027e0000,0x00000000028e0000)]

siginfo: ExceptionCode=0xc0000005, reading address 0x00000003703c61f4

Registers:
RAX=0x000000076bb7d600, RBX=0x0000000000000000, RCX=0x00000000f800003f, RDX=0x000000076bb7d600
RSP=0x00000000028dd920, RBP=0x00000000028ddb58, RSI=0x0000000000000000, RDI=0x0000000000000010
R8 =0x00000006c628f110, R9 =0x0000000000000518, R10=0x00000000ed76fac3, R11=0x000000006e078c3d
R12=0x0000000000000000, R13=0x000000076bb7d5d8, R14=0x0000000000000000, R15=0x000000000098e000
RIP=0x0000000002be709a, EFLAGS=0x0000000000010202

Top of Stack: (sp=0x00000000028dd920)
0x00000000028dd920:   0000000000000000 000000076bb7d580
0x00000000028dd930:   00000000028ddb58 00000000039eeccc
0x00000000028dd940:   00000000028ddb58 00000000039d8f2c
0x00000000028dd950:   000000076bb7d600 00000000039de374
0x00000000028dd960:   00000006c2215510 00000007797e19c0
0x00000000028dd970:   00000006c628f110 000000076bb7d580
0x00000000028dd980:   00000000ed747ac3 0000000000000003
0x00000000028dd990:   00000000028ddb58 0000000003a14674
0x00000000028dd9a0:   00000000000000f2 00000000252be350
0x00000000028dd9b0:   000000000098e000 000000006eef85aa
0x00000000028dd9c0:   00000000252be350 00000000028ddaa0
0x00000000028dd9d0:   00000000ef3a74c9 000000000098ef78
0x00000000028dd9e0:   00000000028dda00 00000000028dda60
0x00000000028dd9f0:   0000000002a02208 00000000029e5410
0x00000000028dda00:   0000000000000000 00000000028ddaa0
0x00000000028dda10:   00000000028dda60 00000000028dda60 

Instructions: (pc=0x0000000002be709a)
0x0000000002be707a:   00 00 66 66 66 90 89 84 24 00 a0 ff ff 55 48 83
0x0000000002be708a:   ec 70 48 89 54 24 30 4c 89 44 24 50 45 8b 58 0c
0x0000000002be709a:   43 8b 5c dc 0c 44 8b 4a 10 47 8b 44 cc 0c 44 89
0x0000000002be70aa:   44 24 3c 44 8b 52 0c 44 8b c3 45 03 c2 41 8b c8 


Register to memory mapping:

RAX=0x000000076bb7d600 is an oop
java.lang.StringBuilder 
 - klass: 'java/lang/StringBuilder'
RBX=0x0000000000000000 is an unknown value
RCX=0x00000000f800003f is an unknown value
RDX=0x000000076bb7d600 is an oop
java.lang.StringBuilder 
 - klass: 'java/lang/StringBuilder'
RSP=0x00000000028dd920 is pointing into the stack for thread: 0x000000000098e000
RBP=0x00000000028ddb58 is pointing into the stack for thread: 0x000000000098e000
RSI=0x0000000000000000 is an unknown value
RDI=0x0000000000000010 is an unknown value
R8 =0x00000006c628f110 is an oop
java.lang.String 
 - klass: 'java/lang/String'
R9 =0x0000000000000518 is an unknown value
R10=0x00000000ed76fac3 is an unknown value
R11=0x000000006e078c3d is an unknown value
R12=0x0000000000000000 is an unknown value
R13=0x000000076bb7d5d8 is an oop
[Ljava.lang.Object; 
 - klass: 'java/lang/Object'[]
 - length: 5
R14=0x0000000000000000 is an unknown value
R15=0x000000000098e000 is a thread


Stack: [0x00000000027e0000,0x00000000028e0000],  sp=0x00000000028dd920,  free space=1014k
Native frames: (J=compiled Java code, j=interpreted, Vv=VM code, C=native code)
C  0x0000000002be709a


---------------  P R O C E S S  ---------------

Java Threads: ( => current thread )
  0x000000001e263800 JavaThread "Service Thread" daemon [_thread_blocked, id=8468, stack(0x000000001ee70000,0x000000001ef70000)]
  0x000000001e1c9800 JavaThread "C1 CompilerThread3" daemon [_thread_blocked, id=8408, stack(0x000000001ed70000,0x000000001ee70000)]
  0x000000001e1c0800 JavaThread "C2 CompilerThread2" daemon [_thread_in_native, id=4844, stack(0x000000001ec70000,0x000000001ed70000)]
  0x000000001e1c0000 JavaThread "C2 CompilerThread1" daemon [_thread_in_native, id=6860, stack(0x000000001eb70000,0x000000001ec70000)]
  0x000000001e1d0800 JavaThread "C2 CompilerThread0" daemon [_thread_in_native, id=11244, stack(0x000000001ea70000,0x000000001eb70000)]
  0x000000001e1cf800 JavaThread "Attach Listener" daemon [_thread_blocked, id=8732, stack(0x000000001e970000,0x000000001ea70000)]
  0x000000001e1ce800 JavaThread "Signal Dispatcher" daemon [_thread_blocked, id=10248, stack(0x000000001e870000,0x000000001e970000)]
  0x000000001c3d9800 JavaThread "Finalizer" daemon [_thread_blocked, id=11600, stack(0x000000001e690000,0x000000001e790000)]
  0x000000001c3d0000 JavaThread "Reference Handler" daemon [_thread_blocked, id=1152, stack(0x000000001e590000,0x000000001e690000)]
=>0x000000000098e000 JavaThread "main" [_thread_in_Java, id=10760, stack(0x00000000027e0000,0x00000000028e0000)]

Other Threads:
  0x000000001c3ca800 VMThread [stack: 0x000000001e090000,0x000000001e190000] [id=1800]
  0x000000001e264000 WatcherThread [stack: 0x000000001ef70000,0x000000001f070000] [id=9532]

VM state:not at safepoint (normal execution)

VM Mutex/Monitor currently owned by a thread: None

heap address: 0x00000006c2000000, size: 4064 MB, Compressed Oops mode: Zero based, Oop shift amount: 3
Narrow klass base: 0x0000000000000000, Narrow klass shift: 3
Compressed class space size: 1073741824 Address: 0x00000007c0000000

Heap:
 PSYoungGen      total 179200K, used 58277K [0x000000076b580000, 0x000000077cc00000, 0x00000007c0000000)
  eden space 128512K, 5% used [0x000000076b580000,0x000000076bcefde8,0x0000000773300000)
  from space 50688K, 99% used [0x0000000777400000,0x000000077a5799d0,0x000000077a580000)
  to   space 66560K, 0% used [0x0000000773300000,0x0000000773300000,0x0000000777400000)
 ParOldGen       total 209408K, used 79741K [0x00000006c2000000, 0x00000006cec80000, 0x000000076b580000)
  object space 209408K, 38% used [0x00000006c2000000,0x00000006c6ddf630,0x00000006cec80000)
 Metaspace       used 39611K, capacity 40216K, committed 40448K, reserved 1085440K
  class space    used 4856K, capacity 5031K, committed 5120K, reserved 1048576K

Card table byte_map: [0x0000000011da0000,0x00000000125a0000] byte_map_base: 0x000000000e790000

Marking Bits: (ParMarkBitMap*) 0x000000006f629f30
 Begin Bits: [0x00000000132f0000, 0x0000000017270000)
 End Bits:   [0x0000000017270000, 0x000000001b1f0000)

Polling page: 0x0000000000f10000

CodeCache: size=245760Kb used=16549Kb max_used=16563Kb free=229210Kb
 bounds [0x00000000029e0000, 0x0000000003a20000, 0x00000000119e0000]
 total_blobs=4730 nmethods=4278 adapters=365
 compilation: enabled

Compilation events (10 events):
Event: 20.024 Thread 0x000000001e1c9800 4851       3       android.databinding.tool.reflection.SdkUtil$ApiChecker::buildFullLookup (252 bytes)
Event: 20.025 Thread 0x000000001e1c0800 nmethod 4837 0x00000000039fad10 code [0x00000000039faea0, 0x00000000039fb538]
Event: 20.025 Thread 0x000000001e1c0800 4840       4       com.sun.org.apache.xerces.internal.dom.NodeImpl::isNormalized (55 bytes)
Event: 20.025 Thread 0x000000001e1c9800 nmethod 4851 0x00000000039f5a50 code [0x00000000039f5ec0, 0x00000000039f8668]
Event: 20.026 Thread 0x000000001e1c0800 nmethod 4840 0x00000000039faa90 code [0x00000000039fabc0, 0x00000000039fac78]
Event: 20.026 Thread 0x000000001e1c0800 4838       4       com.sun.org.apache.xerces.internal.dom.DeferredDocumentImpl::getTypeInfo (99 bytes)
Event: 20.026 Thread 0x000000001e1c0800 nmethod 4838 0x00000000039f1250 code [0x00000000039f1380, 0x00000000039f13f8]
Event: 20.026 Thread 0x000000001e1c0800 4841       4       com.sun.org.apache.xerces.internal.dom.NamedNodeMapImpl::getNamedItem (32 bytes)
Event: 20.027 Thread 0x000000001e1c0800 nmethod 4841 0x0000000003a17cd0 code [0x0000000003a17e20, 0x0000000003a17f68]
Event: 20.027 Thread 0x000000001e1c0800 4843       4       com.sun.org.apache.xerces.internal.dom.ElementImpl::getNodeName (16 bytes)

GC Heap History (10 events):
Event: 10.804 GC heap before
{Heap before GC invocations=6 (full 2):
 PSYoungGen      total 98304K, used 10749K [0x000000076b580000, 0x0000000772100000, 0x00000007c0000000)
  eden space 87552K, 0% used [0x000000076b580000,0x000000076b580000,0x0000000770b00000)
  from space 10752K, 99% used [0x0000000771580000,0x0000000771fff430,0x0000000772000000)
  to   space 10752K, 0% used [0x0000000770b00000,0x0000000770b00000,0x0000000771580000)
 ParOldGen       total 120320K, used 19091K [0x00000006c2000000, 0x00000006c9580000, 0x000000076b580000)
  object space 120320K, 15% used [0x00000006c2000000,0x00000006c32a4ca0,0x00000006c9580000)
 Metaspace       used 34789K, capacity 35266K, committed 35456K, reserved 1079296K
  class space    used 4489K, capacity 4638K, committed 4736K, reserved 1048576K
Event: 11.035 GC heap after
Heap after GC invocations=6 (full 2):
 PSYoungGen      total 98304K, used 0K [0x000000076b580000, 0x0000000772100000, 0x00000007c0000000)
  eden space 87552K, 0% used [0x000000076b580000,0x000000076b580000,0x0000000770b00000)
  from space 10752K, 0% used [0x0000000771580000,0x0000000771580000,0x0000000772000000)
  to   space 10752K, 0% used [0x0000000770b00000,0x0000000770b00000,0x0000000771580000)
 ParOldGen       total 209408K, used 22341K [0x00000006c2000000, 0x00000006cec80000, 0x000000076b580000)
  object space 209408K, 10% used [0x00000006c2000000,0x00000006c35d1748,0x00000006cec80000)
 Metaspace       used 34789K, capacity 35266K, committed 35456K, reserved 1079296K
  class space    used 4489K, capacity 4638K, committed 4736K, reserved 1048576K
}
Event: 15.795 GC heap before
{Heap before GC invocations=7 (full 2):
 PSYoungGen      total 98304K, used 87552K [0x000000076b580000, 0x0000000772100000, 0x00000007c0000000)
  eden space 87552K, 100% used [0x000000076b580000,0x0000000770b00000,0x0000000770b00000)
  from space 10752K, 0% used [0x0000000771580000,0x0000000771580000,0x0000000772000000)
  to   space 10752K, 0% used [0x0000000770b00000,0x0000000770b00000,0x0000000771580000)
 ParOldGen       total 209408K, used 22341K [0x00000006c2000000, 0x00000006cec80000, 0x000000076b580000)
  object space 209408K, 10% used [0x00000006c2000000,0x00000006c35d1748,0x00000006cec80000)
 Metaspace       used 36106K, capacity 36674K, committed 36864K, reserved 1081344K
  class space    used 4583K, capacity 4766K, committed 4864K, reserved 1048576K
Event: 15.864 GC heap after
Heap after GC invocations=7 (full 2):
 PSYoungGen      total 98304K, used 10747K [0x000000076b580000, 0x0000000775b00000, 0x00000007c0000000)
  eden space 87552K, 0% used [0x000000076b580000,0x000000076b580000,0x0000000770b00000)
  from space 10752K, 99% used [0x0000000770b00000,0x000000077157ed80,0x0000000771580000)
  to   space 27136K, 0% used [0x0000000774080000,0x0000000774080000,0x0000000775b00000)
 ParOldGen       total 209408K, used 38167K [0x00000006c2000000, 0x00000006cec80000, 0x000000076b580000)
  object space 209408K, 18% used [0x00000006c2000000,0x00000006c4545ec8,0x00000006cec80000)
 Metaspace       used 36106K, capacity 36674K, committed 36864K, reserved 1081344K
  class space    used 4583K, capacity 4766K, committed 4864K, reserved 1048576K
}
Event: 17.547 GC heap before
{Heap before GC invocations=8 (full 2):
 PSYoungGen      total 98304K, used 98299K [0x000000076b580000, 0x0000000775b00000, 0x00000007c0000000)
  eden space 87552K, 100% used [0x000000076b580000,0x0000000770b00000,0x0000000770b00000)
  from space 10752K, 99% used [0x0000000770b00000,0x000000077157ed80,0x0000000771580000)
  to   space 27136K, 0% used [0x0000000774080000,0x0000000774080000,0x0000000775b00000)
 ParOldGen       total 209408K, used 38167K [0x00000006c2000000, 0x00000006cec80000, 0x000000076b580000)
  object space 209408K, 18% used [0x00000006c2000000,0x00000006c4545ec8,0x00000006cec80000)
 Metaspace       used 36624K, capacity 37122K, committed 37376K, reserved 1081344K
  class space    used 4609K, capacity 4766K, committed 4864K, reserved 1048576K
Event: 17.573 GC heap after
Heap after GC invocations=8 (full 2):
 PSYoungGen      total 133120K, used 27122K [0x000000076b580000, 0x0000000776d80000, 0x00000007c0000000)
  eden space 105984K, 0% used [0x000000076b580000,0x000000076b580000,0x0000000771d00000)
  from space 27136K, 99% used [0x0000000774080000,0x0000000775afc9d0,0x0000000775b00000)
  to   space 36352K, 0% used [0x0000000771d00000,0x0000000771d00000,0x0000000774080000)
 ParOldGen       total 209408K, used 46990K [0x00000006c2000000, 0x00000006cec80000, 0x000000076b580000)
  object space 209408K, 22% used [0x00000006c2000000,0x00000006c4de3bc0,0x00000006cec80000)
 Metaspace       used 36624K, capacity 37122K, committed 37376K, reserved 1081344K
  class space    used 4609K, capacity 4766K, committed 4864K, reserved 1048576K
}
Event: 19.310 GC heap before
{Heap before GC invocations=9 (full 2):
 PSYoungGen      total 133120K, used 133106K [0x000000076b580000, 0x0000000776d80000, 0x00000007c0000000)
  eden space 105984K, 100% used [0x000000076b580000,0x0000000771d00000,0x0000000771d00000)
  from space 27136K, 99% used [0x0000000774080000,0x0000000775afc9d0,0x0000000775b00000)
  to   space 36352K, 0% used [0x0000000771d00000,0x0000000771d00000,0x0000000774080000)
 ParOldGen       total 209408K, used 46990K [0x00000006c2000000, 0x00000006cec80000, 0x000000076b580000)
  object space 209408K, 22% used [0x00000006c2000000,0x00000006c4de3bc0,0x00000006cec80000)
 Metaspace       used 37349K, capacity 37922K, committed 38144K, reserved 1083392K
  class space    used 4631K, capacity 4798K, committed 4864K, reserved 1048576K
Event: 19.352 GC heap after
Heap after GC invocations=9 (full 2):
 PSYoungGen      total 142336K, used 36335K [0x000000076b580000, 0x000000077a580000, 0x00000007c0000000)
  eden space 105984K, 0% used [0x000000076b580000,0x000000076b580000,0x0000000771d00000)
  from space 36352K, 99% used [0x0000000771d00000,0x000000077407bdb8,0x0000000774080000)
  to   space 50688K, 0% used [0x0000000777400000,0x0000000777400000,0x000000077a580000)
 ParOldGen       total 209408K, used 63044K [0x00000006c2000000, 0x00000006cec80000, 0x000000076b580000)
  object space 209408K, 30% used [0x00000006c2000000,0x00000006c5d911a8,0x00000006cec80000)
 Metaspace       used 37349K, capacity 37922K, committed 38144K, reserved 1083392K
  class space    used 4631K, capacity 4798K, committed 4864K, reserved 1048576K
}
Event: 19.989 GC heap before
{Heap before GC invocations=10 (full 2):
 PSYoungGen      total 142336K, used 142319K [0x000000076b580000, 0x000000077a580000, 0x00000007c0000000)
  eden space 105984K, 100% used [0x000000076b580000,0x0000000771d00000,0x0000000771d00000)
  from space 36352K, 99% used [0x0000000771d00000,0x000000077407bdb8,0x0000000774080000)
  to   space 50688K, 0% used [0x0000000777400000,0x0000000777400000,0x000000077a580000)
 ParOldGen       total 209408K, used 63044K [0x00000006c2000000, 0x00000006cec80000, 0x000000076b580000)
  object space 209408K, 30% used [0x00000006c2000000,0x00000006c5d911a8,0x00000006cec80000)
 Metaspace       used 39609K, capacity 40216K, committed 40448K, reserved 1085440K
  class space    used 4856K, capacity 5031K, committed 5120K, reserved 1048576K
Event: 20.015 GC heap after
Heap after GC invocations=10 (full 2):
 PSYoungGen      total 179200K, used 50662K [0x000000076b580000, 0x000000077cc00000, 0x00000007c0000000)
  eden space 128512K, 0% used [0x000000076b580000,0x000000076b580000,0x0000000773300000)
  from space 50688K, 99% used [0x0000000777400000,0x000000077a5799d0,0x000000077a580000)
  to   space 66560K, 0% used [0x0000000773300000,0x0000000773300000,0x0000000777400000)
 ParOldGen       total 209408K, used 79741K [0x00000006c2000000, 0x00000006cec80000, 0x000000076b580000)
  object space 209408K, 38% used [0x00000006c2000000,0x00000006c6ddf630,0x00000006cec80000)
 Metaspace       used 39609K, capacity 40216K, committed 40448K, reserved 1085440K
  class space    used 4856K, capacity 5031K, committed 5120K, reserved 1048576K
}

Deoptimization events (10 events):
Event: 19.496 Thread 0x000000000098e000 Uncommon trap: reason=unstable_if action=reinterpret pc=0x0000000002e0a908 method=java.util.regex.Pattern.append(II)V @ 6
Event: 19.644 Thread 0x000000000098e000 Uncommon trap: reason=unstable_if action=reinterpret pc=0x0000000003550274 method=java.lang.String.lastIndexOf([CII[CIII)I @ 66
Event: 19.659 Thread 0x000000000098e000 Uncommon trap: reason=unstable_if action=reinterpret pc=0x000000000308252c method=java.util.concurrent.ConcurrentHashMap.get(Ljava/lang/Object;)Ljava/lang/Object; @ 76
Event: 19.659 Thread 0x000000000098e000 Uncommon trap: reason=class_check action=maybe_recompile pc=0x0000000002dc5050 method=java.util.concurrent.ConcurrentHashMap.putVal(Ljava/lang/Object;Ljava/lang/Object;Z)Ljava/lang/Object; @ 192
Event: 19.881 Thread 0x000000000098e000 Uncommon trap: reason=unstable_if action=reinterpret pc=0x000000000393d218 method=com.sun.org.apache.xerces.internal.impl.XMLEntityScanner.scanContent(Lcom/sun/org/apache/xerces/internal/xni/XMLString;)I @ 526
Event: 19.931 Thread 0x000000000098e000 Uncommon trap: reason=unstable_if action=reinterpret pc=0x000000000397e37c method=com.sun.org.apache.xerces.internal.impl.XMLEntityScanner.peekChar()I @ 14
Event: 19.945 Thread 0x000000000098e000 Uncommon trap: reason=unstable_if action=reinterpret pc=0x000000000393c948 method=com.sun.org.apache.xerces.internal.impl.XMLEntityScanner.skipSpaces()Z @ 72
Event: 19.945 Thread 0x000000000098e000 Uncommon trap: reason=unstable_if action=reinterpret pc=0x000000000394cc50 method=com.sun.org.apache.xerces.internal.impl.io.UTF8Reader.read([CII)I @ 75
Event: 19.945 Thread 0x000000000098e000 Uncommon trap: reason=unstable_if action=reinterpret pc=0x000000000395c900 method=com.sun.org.apache.xerces.internal.impl.XMLDocumentFragmentScannerImpl.scanDocument(Z)Z @ 315
Event: 19.946 Thread 0x000000000098e000 Uncommon trap: reason=unstable_if action=reinterpret pc=0x0000000002c91a18 method=java.lang.AbstractStringBuilder.append(Ljava/lang/String;)Ljava/lang/AbstractStringBuilder; @ 1

Classes redefined (0 events):
No events

Internal exceptions (10 events):
Event: 3.237 Thread 0x000000000098e000 Exception <a 'java/lang/NoSuchMethodError': java.lang.Object.lambda$static$0()J> (0x000000076b647290) thrown at [D:\src\AOSP-openjdk-cygwin\jdk8u\hotspot\src\share\vm\interpreter\linkResolver.cpp, line 620]
Event: 3.912 Thread 0x000000000098e000 Exception <a 'java/lang/NoSuchMethodError': java.lang.Object.lambda$static$0(I)[Lorg/jetbrains/kotlin/com/intellij/openapi/editor/event/DocumentListener;> (0x000000076c274a78) thrown at [D:\src\AOSP-openjdk-cygwin\jdk8u\hotspot\src\share\vm\interpreter\li
Event: 3.990 Thread 0x000000000098e000 Exception <a 'java/lang/NoSuchMethodError': java.lang.Object.lambda$static$0(I)[Lorg/jetbrains/kotlin/com/intellij/psi/PsiAnnotation;> (0x000000076c461818) thrown at [D:\src\AOSP-openjdk-cygwin\jdk8u\hotspot\src\share\vm\interpreter\linkResolver.cpp, line
Event: 4.313 Thread 0x000000000098e000 Exception <a 'java/lang/NoSuchMethodError': java.lang.Object.lambda$static$0(I)[Lorg/jetbrains/kotlin/com/intellij/psi/PsiElement;> (0x000000076b8bbb50) thrown at [D:\src\AOSP-openjdk-cygwin\jdk8u\hotspot\src\share\vm\interpreter\linkResolver.cpp, line 62
Event: 7.407 Thread 0x000000000098e000 Implicit null exception at 0x0000000002f74400 to 0x0000000002f7461d
Event: 7.608 Thread 0x000000000098e000 Exception <a 'java/lang/ArrayIndexOutOfBoundsException': 108> (0x000000076f282490) thrown at [D:\src\AOSP-openjdk-cygwin\jdk8u\hotspot\src\share\vm\interpreter\interpreterRuntime.cpp, line 368]
Event: 7.610 Thread 0x000000000098e000 Exception <a 'java/lang/ArrayIndexOutOfBoundsException': 92> (0x000000076f283b70) thrown at [D:\src\AOSP-openjdk-cygwin\jdk8u\hotspot\src\share\vm\interpreter\interpreterRuntime.cpp, line 368]
Event: 7.610 Thread 0x000000000098e000 Exception <a 'java/lang/ArrayIndexOutOfBoundsException': 40> (0x000000076f284ce8) thrown at [D:\src\AOSP-openjdk-cygwin\jdk8u\hotspot\src\share\vm\interpreter\interpreterRuntime.cpp, line 368]
Event: 19.467 Thread 0x000000000098e000 Implicit null exception at 0x0000000003788d10 to 0x0000000003788d55
Event: 19.946 Thread 0x000000000098e000 Implicit null exception at 0x0000000002c91656 to 0x0000000002c91a01

Events (10 events):
Event: 19.989 Executing VM operation: ParallelGCFailedAllocation
Event: 20.015 Executing VM operation: ParallelGCFailedAllocation done
Event: 20.015 Executing VM operation: RevokeBias
Event: 20.015 Executing VM operation: RevokeBias done
Event: 20.015 Executing VM operation: RevokeBias
Event: 20.015 Executing VM operation: RevokeBias done
Event: 20.015 Executing VM operation: RevokeBias
Event: 20.016 Executing VM operation: RevokeBias done
Event: 20.016 Executing VM operation: RevokeBias
Event: 20.016 Executing VM operation: RevokeBias done


Dynamic libraries:
0x00007ff63e860000 - 0x00007ff63e891000 	C:\Program Files\Android\Android Studio\jre\jre\bin\java.exe
0x00007fff44140000 - 0x00007fff44301000 	C:\Windows\SYSTEM32\ntdll.dll
0x00007fff41760000 - 0x00007fff4180d000 	C:\Windows\system32\KERNEL32.DLL
0x00007fff41100000 - 0x00007fff412e8000 	C:\Windows\system32\KERNELBASE.dll
0x00007fff42120000 - 0x00007fff421c7000 	C:\Windows\system32\ADVAPI32.dll
0x00007fff421d0000 - 0x00007fff4226d000 	C:\Windows\system32\msvcrt.dll
0x00007fff42380000 - 0x00007fff423db000 	C:\Windows\system32\sechost.dll
0x00007fff43e30000 - 0x00007fff43f4c000 	C:\Windows\system32\RPCRT4.dll
0x00007fff43fd0000 - 0x00007fff44126000 	C:\Windows\system32\USER32.dll
0x00007fff41c40000 - 0x00007fff41dc6000 	C:\Windows\system32\GDI32.dll
0x00007fff2e5a0000 - 0x00007fff2e814000 	C:\Windows\WinSxS\amd64_microsoft.windows.common-controls_6595b64144ccf1df_6.0.10586.0_none_8c15ae12515e1c22\COMCTL32.dll
0x00007fff41e40000 - 0x00007fff420bd000 	C:\Windows\system32\combase.dll
0x00007fff40fd0000 - 0x00007fff4103a000 	C:\Windows\system32\bcryptPrimitives.dll
0x00007fff42340000 - 0x00007fff4237b000 	C:\Windows\system32\IMM32.DLL
0x000000006ed80000 - 0x000000006ee52000 	C:\Program Files\Android\Android Studio\jre\jre\bin\msvcr100.dll
0x000000006ee60000 - 0x000000006f6a6000 	C:\Program Files\Android\Android Studio\jre\jre\bin\server\jvm.dll
0x00007fff41e30000 - 0x00007fff41e38000 	C:\Windows\system32\PSAPI.DLL
0x00007fff3dd30000 - 0x00007fff3dd39000 	C:\Windows\SYSTEM32\WSOCK32.dll
0x00007fff325b0000 - 0x00007fff325ba000 	C:\Windows\SYSTEM32\VERSION.dll
0x00007fff3ee60000 - 0x00007fff3ee83000 	C:\Windows\SYSTEM32\WINMM.dll
0x00007fff43cb0000 - 0x00007fff43d1b000 	C:\Windows\system32\WS2_32.dll
0x00007fff3ee30000 - 0x00007fff3ee5c000 	C:\Windows\SYSTEM32\WINMMBASE.dll
0x00007fff40f80000 - 0x00007fff40fc3000 	C:\Windows\system32\cfgmgr32.dll
0x00007fff30750000 - 0x00007fff3075f000 	C:\Program Files\Android\Android Studio\jre\jre\bin\verify.dll
0x00007fff2f510000 - 0x00007fff2f539000 	C:\Program Files\Android\Android Studio\jre\jre\bin\java.dll
0x00007fff2f4f0000 - 0x00007fff2f506000 	C:\Program Files\Android\Android Studio\jre\jre\bin\zip.dll
0x00007fff42750000 - 0x00007fff43cac000 	C:\Windows\system32\SHELL32.dll
0x00007fff407f0000 - 0x00007fff40e34000 	C:\Windows\system32\windows.storage.dll
0x00007fff41dd0000 - 0x00007fff41e22000 	C:\Windows\system32\shlwapi.dll
0x00007fff407e0000 - 0x00007fff407ef000 	C:\Windows\system32\kernel.appcore.dll
0x00007fff41040000 - 0x00007fff410f5000 	C:\Windows\system32\shcore.dll
0x00007fff40780000 - 0x00007fff407cb000 	C:\Windows\system32\powrprof.dll
0x00007fff40760000 - 0x00007fff40774000 	C:\Windows\system32\profapi.dll
0x00007fff32cf0000 - 0x00007fff32d0a000 	C:\Program Files\Android\Android Studio\jre\jre\bin\net.dll
0x00007fff40030000 - 0x00007fff4008c000 	C:\Windows\system32\mswsock.dll
0x00007fff32920000 - 0x00007fff32931000 	C:\Program Files\Android\Android Studio\jre\jre\bin\nio.dll
0x00007fff3d580000 - 0x00007fff3d70c000 	C:\Windows\SYSTEM32\dbghelp.dll

VM Arguments:
java_command: org.jetbrains.kotlin.cli.jvm.K2JVMCompiler -Xallow-no-source-files -classpath E:\GIT_WORKSPACE\GenericVansales\app\libs\activation.jar;E:\GIT_WORKSPACE\GenericVansales\app\libs\additionnal.jar;E:\GIT_WORKSPACE\GenericVansales\app\libs\hsm-android-print.jar;E:\GIT_WORKSPACE\GenericVansales\app\libs\httpclient-4.0.jar;E:\GIT_WORKSPACE\GenericVansales\app\libs\httpcore-4.0.1.jar;E:\GIT_WORKSPACE\GenericVansales\app\libs\ksoap2-android-assembly-2.5.8.jar;E:\GIT_WORKSPACE\GenericVansales\app\libs\mail.jar;C:\Users\anusha.v\.gradle\caches\transforms-2\files-2.1\351148cf84d153041f6ad3bb5d34ade8\jetified-HERE-sdk\jars\classes.jar;C:\Users\anusha.v\.gradle\caches\transforms-2\files-2.1\153a8b716e0760966c540046e215e4eb\databinding-adapters-3.5.0\jars\classes.jar;C:\Users\anusha.v\.gradle\caches\transforms-2\files-2.1\15b6da1d39e9d4b273c3aca675a342aa\databinding-runtime-3.5.0\jars\classes.jar;C:\Users\anusha.v\.gradle\caches\modules-2\files-2.1\androidx.databinding\databinding-common\3.5.0\ad17a14009fa4322bf1f90fd8ca631992e5d667f\databinding-common-3.5.0.jar;C:\Users\anusha.v\.gradle\caches\transforms-2\files-2.1\7bf1959109f3609184be4aadda20c216\multidex-2.0.1\jars\classes.jar;C:\Users\anusha.v\.gradle\caches\transforms-2\files-2.1\8ab171fd1aed493fb613bdc495246a4d\lifecycle-extensions-2.0.0\jars\classes.jar;C:\Users\anusha.v\.gradle\caches\transforms-2\files-2.1\487c49e46ee3d274192328aa89ce91d2\material-1.0.0\jars\classes.jar;C:\Users\anusha.v\.gradle\caches\transforms-2\files-2.1\9adea920e51c9484d220608f44180ba7\appcompat-1.1.0\jars\classes.jar;C:\Users\anusha.v\.gradle\caches\transforms-2\files-2.1\3702ea6cdc87ae0a7af4524e0ef669ba\jetified-firebase-messaging-20.0.0\jars\classes.jar;C:\Users\anusha.v\.gradle\caches\transforms-2\files-2.1\a7a3543ca1c19a72944940aece00bc67\play-services-maps-17.0.0\jars\classes.jar;C:\Users\anusha.v\.gradle\caches\transforms-2\files-2.1\7b2fb998f2e407f66aa07cbe853b4a69\jetified-firebase-firestore-21.1.0\jars\classes.jar;C:\Users\
java_class_path (initial): C:\Users\anusha.v\.gradle\caches\modules-2\files-2.1\org.jetbrains.kotlin\kotlin-compiler-embeddable\1.3.41\6b1d4385d65894e07a0d14a5949f5417a408f0b7\kotlin-compiler-embeddable-1.3.41.jar;C:\Users\anusha.v\.gradle\caches\modules-2\files-2.1\org.jetbrains.kotlin\kotlin-reflect\1.3.41\8fb58b8954661de666e321478bf4178c18ce8018\kotlin-reflect-1.3.41.jar;C:\Users\anusha.v\.gradle\caches\modules-2\files-2.1\org.jetbrains.kotlin\kotlin-stdlib\1.3.41\e24bd38de28a326cce8b1f0d61e809e9a92dad6a\kotlin-stdlib-1.3.41.jar;C:\Users\anusha.v\.gradle\caches\modules-2\files-2.1\org.jetbrains.kotlin\kotlin-script-runtime\1.3.41\bcc3380041bbba171119c22d7024961b60da69e0\kotlin-script-runtime-1.3.41.jar;C:\Users\anusha.v\.gradle\caches\modules-2\files-2.1\org.jetbrains.intellij.deps\trove4j\1.0.20181211\216c2e14b070f334479d800987affe4054cd563f\trove4j-1.0.20181211.jar;C:\Users\anusha.v\.gradle\caches\modules-2\files-2.1\org.jetbrains.kotlin\kotlin-stdlib-common\1.3.41\2ecf4aa059427d7186312fd1736afedf7972e7f7\kotlin-stdlib-common-1.3.41.jar;C:\Users\anusha.v\.gradle\caches\modules-2\files-2.1\org.jetbrains\annotations\13.0\919f0dfe192fb4e063e7dacadee7f8bb9a2672a9\annotations-13.0.jar;C:\Program Files\Android\Android Studio\jre\lib\tools.jar
Launcher Type: SUN_STANDARD

Environment Variables:
PATH=C:\Program Files (x86)\Common Files\Oracle\Java\javapath;C:\Windows\system32;C:\Windows;C:\Windows\System32\Wbem;C:\Windows\System32\WindowsPowerShell\v1.0\;C:\Program Files (x86)\Common Files\Oracle\Java\javapath;C:\Windows\system32;C:\Windows;C:\Windows\System32\Wbem;C:\Windows\System32\WindowsPowerShell\v1.0\;C:\Program Files (x86)\Skype\Phone\;C:\Users\anusha.v\AppData\Local\Programs\Git\cmd
USERNAME=anusha.v
OS=Windows_NT
PROCESSOR_IDENTIFIER=Intel64 Family 6 Model 142 Stepping 10, GenuineIntel



---------------  S Y S T E M  ---------------

OS: Windows 10.0 , 64 bit Build 10586 (10.0.10586.0)

CPU:total 8 (initial active 8) (4 cores per cpu, 2 threads per core) family 6 model 142 stepping 10, cmov, cx8, fxsr, mmx, sse, sse2, sse3, ssse3, sse4.1, sse4.2, popcnt, avx, avx2, aes, clmul, erms, 3dnowpref, lzcnt, ht, tsc, tscinvbit, bmi1, bmi2, adx

Memory: 4k page, physical 16639140k(6932116k free), swap 19129508k(6825516k free)

vm_info: OpenJDK 64-Bit Server VM (25.202-b03) for windows-amd64 JRE (1.8.0_202-release-1483-b03), built by "builder" with MS VC++ 10.0 (VS2010)

time: Mon Dec 23 12:51:44 2019
timezone: India Standard Time
elapsed time: 20 seconds (0d 0h 0m 20s)

