{
  "project_info": {
    "project_number": "1075436846058",
    "firebase_url": "https://tbs-vansales.firebaseio.com",
    "project_id": "tbs-vansales",
    "storage_bucket": "tbs-vansales.appspot.com"
  },
  "client": [
    {
      "client_info": {
        "mobilesdk_app_id": "1:1075436846058:android:91600a2592f470e5e89093",
        "android_client_info": {
          "package_name": "com.tbs.generic.vansales"
        }
      },
      "oauth_client": [
        {
          "client_id": "1075436846058-qmrio04gam3ravu0tq1404o3pge73mb3.apps.googleusercontent.com",
          "client_type": 3
        }
      ],
      "api_key": [
        {
          "current_key": "AIzaSyA5C50gaY7yENBWyfi78Oml09dCqo2HOyo"
        }
      ],
      "services": {
        "appinvite_service": {
          "other_platform_oauth_client": [
            {
              "client_id": "1075436846058-qmrio04gam3ravu0tq1404o3pge73mb3.apps.googleusercontent.com",
              "client_type": 3
            }
          ]
        }
      }
    }
  ],
  "configuration_version": "1"
}